#include "config.qh"
// ==========================
//  Turret Config Generator
// ==========================

#ifdef SVQC

void T_Config_Queue_Swap(float root, float child, entity pass)
{
	string oldroot = config_queue[root];
	config_queue[root] = config_queue[child];
	config_queue[child] = oldroot;
}

float T_Config_Queue_Compare(float root, float child, entity pass)
{
	float i, r, c;

	for(i = 1; i <= 100; ++i)
	{
		r = str2chr(config_queue[root], i);
		c = str2chr(config_queue[child], i);
		if(r == c) { continue; }
		else if(c > r) { return -1; }
		else { return 1; }
	}

	return 0;
}

void Dump_Turret_Settings()
{
	int totalsettings = 0;
	FOREACH(Turrets, it != TUR_Null, {
		// step 1: clear the queue
		TUR_CONFIG_COUNT = 0;
		for(int j = 0; j <= MAX_CONFIG_SETTINGS; ++j)
			config_queue[j] = string_null;

		// step 2: build new queue
		it.tr_config(it);

		// step 3: sort queue
		heapsort(TUR_CONFIG_COUNT, T_Config_Queue_Swap, T_Config_Queue_Compare, NULL);

		// step 4: write queue
		TUR_CONFIG_WRITETOFILE(sprintf("// {{{ #%d: %s\n", i, it.turret_name))
		for(int j = 0; j <= TUR_CONFIG_COUNT; ++j)
			TUR_CONFIG_WRITETOFILE(config_queue[j])
		TUR_CONFIG_WRITETOFILE("// }}}\n")

		// step 5: debug info
		LOG_INFOF("#%d: %s: %d settings...", i, it.turret_name, TUR_CONFIG_COUNT);
		totalsettings += TUR_CONFIG_COUNT;
	});

	// clear queue now that we're finished
	TUR_CONFIG_COUNT = 0;
	for(int j = 0; j <= MAX_CONFIG_SETTINGS; ++j)
		config_queue[j] = string_null;

	// extra information
	LOG_INFOF("Totals: %d turrets, %d settings", (Turrets_COUNT - 1), totalsettings);
}

#endif
